{
    "name": "Consultapsuv",
    "alias": "consultapsuv",
    "description": "",
    "keywords": [],
    "active": 1,
    "order": 0,
    "providers": [
        "App\\Modules\\Consultapsuv\\Providers\\ConsultapsuvServiceProvider"
    ],
    "aliases": {},
    "files": [
        "start.php"
    ],
    "requires": []
}
